class|text
neg|Ta facinha é...? Ñ so tou Beba 😒😂
neg|Mentira, estou morrendo de tédio
neg|Diz que me ama, mas não curte todas as minhas fotos, não tatua o meu nome, não pula de bugging jump com cartaz pra mim. que amor é esse?
pos|Toda oração tem resposta, basta esperar e confiar.
neu|Agora somos Vida Loka, kkkkk #Tirolesa 😂👌😜 ;P @ Amazon Acqua Gospel http://t.co/OXOQl9ScdY
neu|Deitada com o primo @juniorarruda
pos|Sem o Filipe meu WhatsApp não é nada
neu|@_joicequeiroz deixa chegar mais perto, aí digo se eu vou
neg|Mas de boa, vou ter que me acostumar a essa nova vida
neg|@DidicaCRF tu torce pro time errado beta! Põe uma blusa do Gigante da colina
neu|This little guy in the Amazon loved the attention! 😄 #GoBucks #Brazil #OSU @ Manaus - Amazonas Brazil http://t.co/vKB1sIfMJ0
neu|@starphantoms tem um rosto aí por cima da cabeça dele ou ¿¿¿
neu|“quais álbuns da demi vcs tem? #asklovatic” todos”todos menos o dont forget
neu|Nigth 👗 @ ✨Click na moda ✨ http://t.co/MhWTFxkIJe
neu|#MaratonaVaiQueCola 😍❤
pos|Top como sempre! @ IDPB - Educandos http://t.co/V43fVZ0ERQ
pos|melhor série ❤️ http://t.co/q8EIdVcy57
pos|- como ta suas ferias? - ta bem louca, mt foda (só fico em Casa tomando Danoninho)
neu|I'm at Vanilla Fortress ® https://t.co/LtUKXGkGiq
neg|Fuck putas
neu|“@whyeve: christina sou eu eu por vários motivos” same
neg|Ele foi humilhado, cuspido e traído, sangrou e morreu na cruz, mas Ele não desistiu de você, então não desista.☝️🙏
neu|sobre esse domingo zZzzZzZZzz
pos|Boa noite, em casa deitado com meu bebê, assistindo #abelaeafera. @ Rua Arabia, Nova cidade http://t.co/CkS69fMJCI
neu|I'm at Estação Cultural Arte &amp; Fato in Manaus, AM https://t.co/h3qbxWVfBr
pos|Dar uns pegas no Vampirinho, pode? 😌
pos|Dia top 😃\o/ amei família piscina amor s2
pos|pior album da Demi? #asklovatic"amo todos, mas em comparação aos outros DEMI
pos|Musica foda 😍
neg|Odeio uma coisa seja com quem for,odeio que fique mastigando de boca aberta do na minha frente,no meu lado seja onde for😂👊
pos|Depois do café regional Lili&amp;Vivi, gosto muito desse lugar (@ Lindopan Casa de Pães in Manaus, AM) https://t.co/IqVED4RzfE
neu|and al bitch
neg|@alexandra_r9 @aIexandra_r9 Chorando sangue
neg|"@souordinario: tem gente q é igual a nuvem (as vezes eu olho e vejo um animal)" @2llyrengis nuvem olhuda minha
neu|Tava pensando aqui
neg|@ironically__ heuehee tarde demais, bj
pos|Minha prima tá tão bem na Alemanha😂
pos|@ncnossorgulho Não sei e eu tô dormindo muito nessas férias..
neg|Oi prazer meu nome é "Otária" e eu faço só burrada! Tenho ciúmes e etc. Prazer 💔
neg|Tenho até pena do meu irmão
neu|@BobbyUllman @michaeljmcniffe @gb_samuel missing two people for whats? Kk
neg|To toda estrupiada
neg|Eu esqueci mesmo
neu|4 meses 💘💞 http://t.co/fdaJ59VfAQ
neg|"@EdithFreitass: Tenho o dom de arrotar sem comer nada" somos 👽
neu|Ja cheguei em casa
pos|Isso é bom. Não conheço mais altos que eu (fora meninos)
neu|So fui ali no bar da minha migs tomar 2 kitrao e voltei
neg|Vai passar 25 dias foraa manoo é uma vida 💔
pos|@thaisou q stalkeada foi essa gostei mt
pos|tendo um date com esse boy (@ Botequim in Manaus) https://t.co/UXEQ8Fa6xo
pos|Crush hj tá apaixonante
pos|Gostei dessa foto ^^
neu|And we can’t stop, and we won’t stop 🎧
neg|Vou ficar alone na igreja 💔
neg|Queria mais abraços
pos|Sorvete❤️❤️❤️❤️❤️ é um pouco de Ariana grande 🎵 (@ Casa dos Fernandes) https://t.co/JOZYiYv4dS
pos|Hi Gostosa  @camilacabello97 Please follow me 😭😭😍❤ I Love You 😍❤🌏 You're my world 🌏😓 follow me Please 😓  #camilahammersledge x362
neg|Não foi dessa vez 😔
neu|Comecei a assistir TWD
pos|Só pra curtir esses teures de boa 👀
neg|@marvelady nem queria viver mesmo (parte 65 de infinito)
neu|V as vezes mais quem disse que dar
neu|@thomasfbs tá solto hoje né?
pos|@carolqtal Tbm s2
pos|melhor forma de começar 2015
neu|Ai depois fui la pra casa do Bruninho terminar essa coca kkkk 👀
neu|magina se chega em Manaus http://t.co/2IaSgO0kpT
neu|@thaisou kkkkkkkkkkkk nhongigbgongigngo
neu|Tenho que parar de sair mesmo
neu|Give Your heart break😍
neu|Estava escrito "Gaita" e eu li "Gaiata" eeeeh sono 😹
neu|@Qcoisa_Cams Safada
neu|Estava tudo muito alto
neu|E eu aqui juntando poeira
neu|Caraaa, que sonoo
neg|Sou julgada só pq assisto o @CanalVacilo 😒. Escória @BLB15_ @annebiebs_
neu|@TheMattEspinosa  http://t.co/ROm8M43UIl check out the new video of Matt #happymatturday #happymatturday #happymatturday EU TE AMO!!208
neg|Não façam isso, não é legal 😤👌👌 http://t.co/9xlLO9JNnQ
neu|@heeysalan fica dando rt nessas frases?
neu|Thay e Karen estavam aqui em casa ❤
pos|@camilacabello97 I LOVE YOU #camilahammersledge
neu|Nunca é facil controlar o odio
pos|Jensen Ackles mds ô homem
neu|I'm at Park Sushi &amp; Grill in Manaus, AM w/ @andrey_sabelli https://t.co/J1sz13vkY4
neg|Minhas pernas estão congelando
neu|Meninas afim de curtir em uma pvt ai chamem dm
pos|Ficaram loucas pelo meu cãozinho🐶😹
neu|@orgulhodapollo vou te mandar na dm mas tu responde aqui
neu|ai eu não tinha percebido que ele tinha me sdv então enviei uma mention falando de brigadeiro
neu|I'm at Ferrugem  Rock Gourmet in Manaus, Amazonas w/ @luacris @taticones https://t.co/Rst7mGnHl6
neu|@parededallas Isso smp acontece Cmg amizade
neu|Cara
neu|Tava com saudades delas
pos|Só pra ficar aqui em casa de boa 👀
neu|@parededallas amizade eu vou te deixar no vácuo por um tempinho PQ TO no FaceTime com a minha amg
pos|@rennanvaler_ 😂😂😂 mas olhaaaa. Beleza! 😂😂😂😂
pos|Striiiiiike 🎳 #amazonbowling http://t.co/8b2nETuI0p
pos|Good night.
neg|Pq a nayme não vai se fuder c essa barriga
neg|@Qcoisa_Cams Ta na coleira ,se fudeu
neu|@_afatcat qual curso?
neu|Mereço ta assim
pos|Mais sempre sobra pro outro dia
neu|@esthones Sim, estou ligado. 😏😂
pos|Babaca msm
neu|O ex crush postou uma foto com a namorada dele
pos|UFC/Budweiser/Pagode/MulherBonita (@ Va Benne Chopp &amp; Grill) https://t.co/Cdo6HHgYXP
neg|é que nem sempre as coisas são como a gente quer
neg|Esses meninos são só atraso na vida dele, mas só ele não percebe! 😪
pos|@orgulhodapollo sim to muito feliz acho que agora eu n AGUENTO um dia sem mensagem e tipo tá 3 dias sem entrar no wpp to preocupada
neu|Hi Gostosa  @camilacabello97     😭😭Please follow me 😭😭 😍❤ I Love You 😍❤ 🌏 You're my world 🌏 😓 follow me Please 😓  #camilahammersledge x379
neu|Ek
pos|(':
neu|É, eu não paro de pensar em você.
neu|Isso é fase depois passa
neg|Odeio ter que dá fora em alguém .
pos|@orgulhodapollo sim e tem meu amor dylan obrien meu homem
neu|@pixielikes faz uma sacadinha de papelão e coloca ao fundo aquela cena de toy story três do "Romeu ó Romeu"
neu|Hi Gostosa  @camilacabello97     😭😭Please follow me 😭😭 😍❤ I Love You 😍❤ 🌏 You're my world 🌏 😓 follow me Please 😓  #camilahammersledge x378
neu|Deve ter alguma droga nesse abraço
neu|E os amigos nessas horas, contamos nos dedos
neu|Pensem oq quiser.
neg|odeio muito nao sentir sono a noite 😡😭
neu|Hi Gostosa  @camilacabello97     😭😭Please follow me 😭😭 😍❤ I Love You 😍❤ 🌏 You're my world 🌏 😓 follow me Please 😓  #camilahammersledge x381
pos|"mas que preguiça boa, me deixa aqui a toa" meu lema de vida
neu|@marciomello_1 é só chegar aqui mano tlgd que é nós
neu|I'm at Jess home 🏡 in Manaus, Amazonas https://t.co/NxEy268LxR
neu|@fckngron sim 🍌
neu|Cara, minha tl hoje tá só o Neymar
neg|Tu nem imagina como a vida de nessasaur é difícil vagaba @VanessaHudgens
neg|fui assistir um filme no cinema e n entendi pn
neu|Gente a maturidade da pessoa começa quando ela Para de Ficar . E começa amadurece
neu|Sdds de atentar a bea e a lari 😿
neu|Sem miséria
neu|stalkeada básica no face d gato 😉
neu|Sobre passar amanhã, segunda e terça sozinho em casa http://t.co/Tpv7p2kItD
neu|Tenho que dormir
neg|Tenho paciência p mino besta n oh, puta merda!!!
neu|Aquele minino quando me abraçou , me carregou k ..
neu|@ziggstardst venceu na vida hj em dia tenho follow de tanta gente mas edai
neu|@catchmegrande vdd skehsj
neg|ai chata
neg|Não importa, eu acho que eu nunca vou ser interessante o suficiente pra alguém se apaixonar por mim 😞
neu|@umafadogeorg o que aconteceu?
neu|@ThaiinaComH Mana e aquele mimi no facebook, o boy deixa ela aqui e vai pa manaus, e ela nao quer fazer isso affs
pos|Talvez a eternidade ainda seja pouco para o tempo que eu gostaria de ficar guardada em seu abraço. Ser… http://t.co/sbKMT4GodI
neu|Indireta recebida 👌
neu|I'm at Rancho Sertanejo in Manaus, Amazonas https://t.co/NUWNSjms2d
neu|e tem maionese fluorescente 💕
neu|Tchau
neg|Friozinho da porra
neg|Acabei dormindo merda
neu|Quero kikao
neu|Tudo ouvindo melhor jazz🎷🎺🎷 @ Jack N'Blues Snooker Pub http://t.co/hKt80Xdn3d
neu|“@SahCosta_: Esse livro "Não se apega não." me descreve,parece até minha história, ou talvez um livro feito pra mim. 📕📚💟” @monicasmiiith  KK
neu|SIM! hahahaha
neu|Espero que amanhã tenha fut
neu|Todos pro f3, boate sei mais la oq, e eu aqui em casa
neu|Essa é pras mina do caiçara então menina bate com a bunda na vara
neu|@orgulhodapollo QUEM EH KKKKKKJJJ
neu|@fckfigs Caralho bro, KKKKKKKKKKKKKKKK 😂😂😂😂😂😂😂😂😂😂😂😂😂😂
neu|If you know how to be my lover Maybe you can be my baby Hold me close under the covers Kiss me boy and drive me crazy
neu|Cadê os filme bom essa hora
neu|@orgulhodapollo qual o user dele kkkkjjjjj
neu|Nossa
neu|E aê
neu|Amor essa foto😍😍 http://t.co/oXqxBAjtyW
neu|tenho um pa de música aqui que a Ester mandava eu baixar pra ela dançar de manhã kkkkkjjj saudade
neu|“Desde os dias mais antigos eu o sou. Não há quem possa livrar alguém de minha mão. Agindo eu, quem o pode desfazer?” Is.43:13
neu|Poireeem quero durmir
neu|@rafaellaaa_v oi novinhah kal seu zap zap
neu|@ThaiinaComH 😂😂😂bestamos sendo podres, ainda bem que ele nao ta on
neu|Brinks, passou.
pos|Reatei todo amor com a Ana caralho eu amo demais essa menina
neu|@fcstereokicks no meu tt pessoal n amiga
neg|@Rhayssagoomes teus filme queimado tinha mais que vender mesmo 😂😂
neu|Tá de pé meu plano de sair da vida de todo mundo 😌
neu|Postei uma fic no spirit sobre o 5SOS
neg|Da raiva
neu|Essa semana não
neu|so you wanna play with magic? boy, you should know whatcha falling for
neu|Acho meio difícil eu tirar alguma foto sem levantar uma sobrancelha
neg|Odeio minha vida
neu|Dps dps ..
neg|Vascaíno já estão entregando o Carioca 😂😂😂 torcedores cu mesmo
neu|Quando é o próximo jogo do Vasco na copinha?
neg|Se já me fez mal, hoje em dia eu quero é distancia.
neg|minha mãe acha q só pq to no celular ela acha q to no whats 😒
neu|@theeverton_ mas mas mas :(
neg|Pq isso nunca muda
neu|Helber quer que eu vá dormir na casa dele 😍😍
neu|Me arrumar..  Jaja arte &amp; fato🍺🍸🚬💪😁
neg|Coração na mão😪
neg|@vod4_ deu o cu
neu|I'm at Igreja Pentecostal Remanescente de Água Viva https://t.co/vvMZRPPwiT
neu|@@OkayFacee pocoto pocoto minha éguinha pocoto, heushwhs
neu|V não mesmo
neu|Só te falo uma coisa; não te falo é nada...
neu|Pela segunda rodada da Copinha, o Vasco encara Serrano-BA na próxima quarta-feira, dia 7 de janeiro, às 16 horas, no Estádio Joaquinzão.
neu|all bitch!!!
pos|Querendo muito
neu|Fui, my home. :( (@ Centro Cultural dos Povos da Amazônia in Manaus, AM) https://t.co/zzMYa7yMKN
neu|I'm at Vila Militar São Jorge in Manaus, AM https://t.co/m0gqQ5qboT
neg|A-D-O-R-O quando me deixam no vácuo no whatssss
neg|Eu nunca sei se a indireta é pra mim.
neu|(?)
neg|@ncnossorgulho E o mais engraçado é que de madrugada o sono vai embora..
neu|E esses recém-conversos se apaixonando por mim 😪😪😪😪
pos|Silvio santos é legal
neg|@theeverton_ as 3 hjajsjsk mentira, nem ouço nickelback
pos|amo esse clima szsz
pos|Tava na hora né k
pos|Ai você conversa com a pessoa, e parece que já se conhecem a tempos kk
neg|Qualquer vento que bate, ele pula no portão pra latir
neg|@xanssa foda passar por isso
neg|Queridos,não percam seu tempo😂
neu|Eita varoa
neg|mas poderia está mais frio
neg|pq tá todo mundo falando de lp eu hein vcs já foram melhores
pos|Vou começar meu propósito 😢😻😻😻😻😻
pos|Gente, passado com essa Mona dançando
pos|Meu iPhone 4g 🌚 que lindo
neg|"@oxigenaill: até o meu pau é mais parecido com a 1D #STOPyouarenot1D http://t.co/Ek3Qz0F3WX" Q MERDA É ESSA MANO?!
neg|@doceiguallima1 💁 Recalque
neu|@umaflyerquevoa juh? Mudou o user
pos|Domingo dia do Senhor! (@ Igreja Sagrada Família) https://t.co/0z7PCJtAts
pos|Risos eternos pra ela
neg|Já tô chorando desde já com o fim de cobras&amp;lagartos, vou ficar sem Mada e sem Tuane.
neu|"@EuQuandoBr: Eu quando me acordam: http://t.co/pfcRuviqoR" ahs 😍😍😍😍😍😍
pos|Primeiro domingo do ano, agradecer ao meu Deus 🙌 (@ IEADAM- Área 23 Japiim 2) https://t.co/aCHh4vWOvB
pos|Família é tudo mesmo ❤
neu|@xanssa http://t.co/8D48gSJ8p5
pos|Ai você me liga e é como se mais nada existisse
neu|Então fica até o sol chegar, que eu ligo pro sol pra avisar que hoje ele pode demorar 🌞❤🎤
neg|Tweetar parece crime
neg|🌿🍃  Hey @bevansisme Can u follow me? 🙈 I need ur follow more than everything ♥  🌿🍃  ×2
pos|"melhor cabelo da demi? #asklovatic" ruivo, loiro, preto e azul" redvato e loiro com mechas
pos|Se no final tudo que eu creio for mentira (tenho certeza que não é), eu não vou me arrepender de ter crido.
neg|Cade aquela menina crente de 10 min atras? Kkk
pos|Achei mt legal
neu|'Cause you're a sky, 'cause you're a sky full of stars I'm gonna give you my heart 💕💟
neg|Eu queria entender essas pessoas,muito mesmo 😢
neu|oi
neu|マナウス/Manaus Manaus/Brazil at 7 evening
neg|To com fomeeee
neg|Cher ainda existe? pqp
pos|por incrível que pareça já to na tag a uma semana,já não sou taooo novata #asklovatic" ta na tag a pouco tempo e ja tem fãs
pos|Finalmente amanhã eu termino de arrumar meu quarto 🙏🙌
neu|🙏🙌❤️☝️🏤 (@ IEADAM - Área 105 SJVI) https://t.co/13VM7bv8hS
neu|I'm at Copacabana Choperia in Manaus, Amazonas https://t.co/uJ25dk7d47pos|O tempo todo, seria uma perfeição
neu|Zayn m follow me please @zaynmalik
pos|Eu vi o tempo passar, e tanta coisa mudar... 🍃
pos|Me falem músicas legais
neu|maroon 5 ❤❤❤❤❤
neu|🌿🍃  Hey @archesUK Can u follow me? 🙈 I need ur follow more than everything ♥  🌿🍃  ×27
neu|🌿🍃  Hey @archesUK Can u follow me? 🙈 I need ur follow more than everything ♥  🌿🍃  ×26
neu|🌿🍃  Hey @archesUK Can u follow me? 🙈 I need ur follow more than everything ♥  🌿🍃  ×25
neu|🌿🍃  Hey @archesUK Can u follow me? 🙈 I need ur follow more than everything ♥  🌿🍃  ×24
pos|Deus é mais! RT"@evertongualbert: Tornozelo torcido pela 3x em 6 meses. Infelizmente to abandonando o volei.
pos|Teve de tudo nesses dias, desde campeonato de ps4 até corrida de saco.
neu|Preciso de músicas novaass
neg|@JNMiranda_ pior que é um puta noje
neu|🌿🍃  Hey @archesUK Can u follow me? 🙈 I need ur follow more than everything ♥  🌿🍃  ×30
pos|@brenarezende @karineserra_ obrigada amor 💘👸
neg|me ignorando... http://t.co/xDgvoyvIA5
pos|@messindie mds ela pegou ele na melhor fase
neu|Off
neu|@NikaOnigrat 🔫💣🔪 te obrigo :P
neu|Tava pensando mt aq.
pos|@aneraserhead manda aquela música  wndorealwal
pos|💕💕💕 (@ Conjunto Jardim Nova Friburgo in Manaus, AM) https://t.co/8lVaFdtwQi
neg|Eu não quero falar, quero que você perceba."
neg|@Fravy_  só não foi bom comigo 👌
neg|Eu só me estresso
pos|Johnny Depp anos 80/90 melhor fase
pos|Obrigado senhor por mais esse dia lindo e cheio de paz é alegria... Game over Zzzzz (@ P.azitto House's) https://t.co/dl7Y18V80b
pos|Noite linda! (@ Nucleo 8 - Cidade Nova in Manaus, Amazonas) https://t.co/oKj8G8GxwE
neg|Se acostumar com algo, quando parar?
neu|@anwpaullarms é sério Ta por onde ?
pos|gente q me faz chorar de rir
pos|Hoje começa a minha nova rotina...é por uma boa causa Senhor!
neg|@menezes_my tadinha kkkkkk
neg|@menezes_my ain calma bebê
neg|Ocupe-se, mente vazia atrai lembranças."
pos|eu acho que o peter silberman é um justin vernon que deu certo
neu|@camerondallas ♥ hi cameron,     🐘 if you see this,       👽 can you please follow me, please? .
pos|Ai no dia q n tem, morro
neg|@FernandaOFN gera revolta né ? Kk
pos|Vou cantar Start p vcs
neg|nao sei o que esta acontecendo na minha casa
neu|@camerondallas ♥ hi cameron,     🐘 if you see this,       👽 can you please follow me, please?
neg|NAO TENHO MAIS CRUSH
pos|A música perfeita é a tua voz
neg|Miga seja menas http://t.co/BZEjzwhTeu
neu|🌿🍃  Hey @TheZacMann Can u follow me? 🙈 I need ur follow more than everything ♥  🌿🍃  ×8
neg|@babicypriano mano eu n falo nd!
neu|Tem umas coisa q a gente para pra pensar e wooooooooooooooooaa
neg|Dica: quando estiverem fazendo miojo plmdds não vão assistir TV, vcs vão queimar o miojo! 😒
neu|🌿🍃  Hey @TheZacMann Can u follow me? 🙈 I need ur follow more than everything ♥  🌿🍃  ×7
neu|🌿🍃  Hey @TheZacMann Can u follow me? 🙈 I need ur follow more than everything ♥  🌿🍃  ×6
neu|to c bastante sono
neu|🌿🍃  Hey @TheZacMann Can u follow me? 🙈 I need ur follow more than everything ♥  🌿🍃  ×13
pos|.@juao_s 🐳 (@ Eighty's Burguer &amp; Beer in Manaus, AM) https://t.co/A43bUIDDp5
neu|🌿🍃  Hey @TheZacMann Can u follow me? 🙈 I need ur follow more than everything ♥  🌿🍃  ×12
pos|oi
neu|🌿🍃  Hey @TheZacMann Can u follow me? 🙈 I need ur follow more than everything ♥  🌿🍃  ×11
pos|I'm at Cachoeirinha in Manaus, AM https://t.co/PN0Y0TALIu
neu|🌿🍃  Hey @TheZacMann Can u follow me? 🙈 I need ur follow more than everything ♥  🌿🍃  ×17
neu|@camerondallas ♥ hi cameron,     🐘 if you see this,       👽 can you please follow me, please? x7
neu|q cansaço e preguiça, nossa
neu|@anwpaullarms me chama no wpp
pos|Mas de onde você veio linda? 🎶
neu|🌿🍃  Hey @TheZacMann Can u follow me? 🙈 I need ur follow more than everything ♥  🌿🍃  ×21
neg|@Tcharlyys baleiazona é o seu fiofó 👊
neg|@wowtekpix Credo.
neu|🌿🍃  Hey @TheZacMann Can u follow me? 🙈 I need ur follow more than everything ♥  🌿🍃  ×20
neu|@zaynmalik 12/01/1993 ♡♡
neu|@camerondallas ♥ hi cameron,     🐘 if you see this,       👽 can you please follow me, please?x11
neg|“@L1ttl3Leeyum: "@outaylorswift: Fandom tá precisando de alguma coisa pra animar  #ask5sosfam"um today do mike seria bom”isso animaria mto
neu|🌿🍃  Hey @TheZacMann Can u follow me? 🙈 I need ur follow more than everything ♥  🌿🍃  ×27
neg|q noite viu, quero mais n
neg|@renataadrianne1 quem vive de passado é museu
neg|Tô assistindo Closer, cadê o ex melhor amigo pra conversar comigo numa hora dessas
neu|🌿🍃  Hey @TheZacMann Can u follow me? 🙈 I need ur follow more than everything ♥  🌿🍃  ×26
neg|Estava muito sentimental hoje e todos estranhando, e a Thayna "eu sei porque ela ta assim EU SEI" e eu 😒
neg|Que diminua a dor que no meu peito invade
pos|To usando muito o Twitter ultimamente e continuarei.
neu|🌿🍃  Hey @TheZacMann Can u follow me? 🙈 I need ur follow more than everything ♥  🌿🍃  ×43
neu|🌿🍃  Hey @TheZacMann Can u follow me? 🙈 I need ur follow more than everything ♥  🌿🍃  ×42
pos|Tô morrendo de vontade de te agarrar gostoso como a gente fazzzzz
neu|🌿🍃  Hey @TheZacMann Can u follow me? 🙈 I need ur follow more than everything ♥  🌿🍃  ×50
pos|@Sia Baby, como to Brazil please. We love you 😭❤💘
neu|@camerondallas ♥ hi cameron,     🐘 if you see this,       👽 can you please follow me, please?x30
neu|🌿🍃  Hey @TheZacMann Can u follow me? 🙈 I need ur follow more than everything ♥  🌿🍃  ×49
neg|Que me cure ou me ajude a esquecer, ie ieee
pos|@sami_bianca Sua voz e beijavel 😜😛😍
